Union/result.vcd
$date
	Mon Jul 12 16:44:58 2021
$end
$version
	Icarus Verilog
$end
$timescale
	100ps
$end
$scope module system_tb $end
$var wire 8 ! w_target [7:0] $end
$var wire 24 " w_data_out_cond [23:0] $end
$var wire 32 # w_data_nonce [31:0] $end
$var wire 96 $ w_data_entry_12 [95:0] $end
$var wire 128 % w_block [127:0] $end
$var wire 1 & selector $end
$var wire 1 ' reset $end
$var wire 1 ( clk $end
$var wire 1 ) HASH_done $end
$scope module concatenador $end
$var wire 1 & selector $end
$var wire 1 ' reset $end
$var wire 32 * nonce [31:0] $end
$var wire 96 + entry_12 [95:0] $end
$var wire 1 ( clk $end
$var reg 128 , block_out [127:0] $end
$var reg 1 - entry_valid $end
$var reg 96 . hold_entry_12 [95:0] $end
$var reg 32 / hold_nonce [31:0] $end
$var reg 1 0 nonce_valid $end
$upscope $end
$scope module hash $end
$var wire 128 1 block [127:0] $end
$var wire 8 2 target [7:0] $end
$var wire 1 ' reset $end
$var wire 1 ( clk $end
$var reg 8 3 H0 [7:0] $end
$var reg 8 4 H1 [7:0] $end
$var reg 8 5 H2 [7:0] $end
$var reg 24 6 H_hold [23:0] $end
$var reg 24 7 H_out [23:0] $end
$var reg 256 8 W [255:0] $end
$var reg 8 9 a [7:0] $end
$var reg 8 : b [7:0] $end
$var reg 8 ; c [7:0] $end
$var reg 1 ) hash_done $end
$var reg 8 < i [7:0] $end
$var reg 1 = j $end
$var reg 8 > k [7:0] $end
$var reg 8 ? t [7:0] $end
$var reg 8 @ x [7:0] $end
$upscope $end
$scope module system $end
$var wire 24 A data_out_cond [23:0] $end
$var wire 1 ) hash_done $end
$var reg 1 ( clk $end
$var reg 96 B data_entry_12 [95:0] $end
$var reg 32 C data_nonce [31:0] $end
$var reg 8 D data_target [7:0] $end
$var reg 1 ' reset $end
$var reg 1 & selector $end
$upscope $end
$upscope $end
$enddefinitions $end
#0
$dumpvars
b0 D
b0 C
b0 B
bx A
bx @
bx ?
bx >
x=
bx <
bx ;
bx :
bx 9
bx 8
bx 7
bx 6
bx 5
bx 4
bx 3
b0 2
bx 1
x0
b0 /
b0 .
x-
bx ,
b0 +
b0 *
x)
0(
0'
0&
bx %
b0 $
b0 #
bx "
b0 !
$end
#20000000000
00
0-
1'
b0 %
b0 ,
b0 1
b0 "
b0 7
b0 A
0)
b0 ?
0=
b0 <
b0 8
b11111110 5
b10001001 4
b1 3
b0 @
b0 >
b0 ;
b0 :
b0 9
1(
#40000000000
0(
#60000000000
10
b111100100001111110110111111101 /
1-
b1001000011001100011111011010110110110010011110110010100100000000101111100111110111110100111001 .
b1 <
b11000100111111110 6
b11111111 !
b11111111 2
b11111111 D
b111100100001111110110111111101 #
b111100100001111110110111111101 *
b111100100001111110110111111101 C
b1001000011001100011111011010110110110010011110110010100100000000101111100111110111110100111001 $
b1001000011001100011111011010110110110010011110110010100100000000101111100111110111110100111001 +
b1001000011001100011111011010110110110010011110110010100100000000101111100111110111110100111001 B
1&
b11111110 ;
b10001001 :
b1 9
1(
#80000000000
0(
#100000000000
b111100100001111110110111111101001001000011001100011111011010110110110010011110110010100100000000101111100111110111110100111001 %
b111100100001111110110111111101001001000011001100011111011010110110110010011110110010100100000000101111100111110111110100111001 ,
b111100100001111110110111111101001001000011001100011111011010110110110010011110110010100100000000101111100111110111110100111001 1
b11000100111111110 "
b11000100111111110 7
b11000100111111110 A
b10 <
1(
#120000000000
0(
#140000000000
b11 <
b100111110000000000000000 8
1(
#160000000000
0(
#180000000000
b100 <
b101111100111110000000000000000 8
1(
#200000000000
0(
#220000000000
b101 <
b100000000101111100111110000000000000000 8
1(
#240000000000
0(
#260000000000
b110 <
b110010100100000000101111100111110000000000000000 8
1(
#280000000000
0(
#300000000000
b111 <
b10011110110010100100000000101111100111110000000000000000 8
1(
#320000000000
0(
#340000000000
b1000 <
b110110010011110110010100100000000101111100111110000000000000000 8
1(
#360000000000
0(
#380000000000
b1001 <
b11010110110110010011110110010100100000000101111100111110000000000000000 8
1(
#400000000000
0(
#420000000000
b1010 <
b11111011010110110110010011110110010100100000000101111100111110000000000000000 8
1(
#440000000000
0(
#460000000000
b1011 <
b11001100011111011010110110110010011110110010100100000000101111100111110000000000000000 8
1(
#480000000000
0(
#500000000000
b1100 <
b1001000011001100011111011010110110110010011110110010100100000000101111100111110000000000000000 8
1(
#520000000000
0(
#540000000000
b1101 <
b11111101001001000011001100011111011010110110110010011110110010100100000000101111100111110000000000000000 8
1(
#560000000000
0(
#580000000000
b1110 <
b1110110111111101001001000011001100011111011010110110110010011110110010100100000000101111100111110000000000000000 8
1(
#600000000000
0(
#620000000000
b1111 <
b100001111110110111111101001001000011001100011111011010110110110010011110110010100100000000101111100111110000000000000000 8
1(
#640000000000
0(
#660000000000
b10000 <
b111100100001111110110111111101001001000011001100011111011010110110110010011110110010100100000000101111100111110000000000000000 8
1(
#680000000000
0(
#700000000000
b10001 <
b1111111100111100100001111110110111111101001001000011001100011111011010110110110010011110110010100100000000101111100111110000000000000000 8
1(
#720000000000
0(
#740000000000
b10010 <
b110001111111111100111100100001111110110111111101001001000011001100011111011010110110110010011110110010100100000000101111100111110000000000000000 8
1(
#760000000000
0(
#780000000000
b10011 <
b1111111110001111111111100111100100001111110110111111101001001000011001100011111011010110110110010011110110010100100000000101111100111110000000000000000 8
1(
#800000000000
0(
#820000000000
b10100 <
b1111111101111111110001111111111100111100100001111110110111111101001001000011001100011111011010110110110010011110110010100100000000101111100111110000000000000000 8
1(
#840000000000
0(
#860000000000
b10101 <
b111111111111111101111111110001111111111100111100100001111110110111111101001001000011001100011111011010110110110010011110110010100100000000101111100111110000000000000000 8
1(
#880000000000
0(
#900000000000
b10110 <
b11111111111111111111111101111111110001111111111100111100100001111110110111111101001001000011001100011111011010110110110010011110110010100100000000101111100111110000000000000000 8
1(
#920000000000
0(
#940000000000
b10111 <
b1111111111111111111111111111111101111111110001111111111100111100100001111110110111111101001001000011001100011111011010110110110010011110110010100100000000101111100111110000000000000000 8
1(
#960000000000
0(
#980000000000
b11000 <
b111111111111111111111111111111111111111101111111110001111111111100111100100001111110110111111101001001000011001100011111011010110110110010011110110010100100000000101111100111110000000000000000 8
1(
#1000000000000
0(
#1020000000000
b11001 <
b11111111111111111111111111111111111111111111111101111111110001111111111100111100100001111110110111111101001001000011001100011111011010110110110010011110110010100100000000101111100111110000000000000000 8
1(
#1040000000000
0(
#1060000000000
b11010 <
b1111111111111111111111111111111111111111111111111111111101111111110001111111111100111100100001111110110111111101001001000011001100011111011010110110110010011110110010100100000000101111100111110000000000000000 8
1(
#1080000000000
0(
#1100000000000
b11011 <
b111111111111111111111111111111111111111111111111111111111111111101111111110001111111111100111100100001111110110111111101001001000011001100011111011010110110110010011110110010100100000000101111100111110000000000000000 8
1(
#1120000000000
0(
#1140000000000
b11100 <
b11111111111111111111111111111111111111111111111111111111111111111111111101111111110001111111111100111100100001111110110111111101001001000011001100011111011010110110110010011110110010100100000000101111100111110000000000000000 8
1(
#1160000000000
0(
#1180000000000
b11101 <
b1111111111111111111111111111111111111111111111111111111111111111111111111111111101111111110001111111111100111100100001111110110111111101001001000011001100011111011010110110110010011110110010100100000000101111100111110000000000000000 8
1(
#1200000000000
0(
#1220000000000
b11110 <
b111111111111111111111111111111111111111111111111111111111111111111111111111111111111111101111111110001111111111100111100100001111110110111111101001001000011001100011111011010110110110010011110110010100100000000101111100111110000000000000000 8
1(
#1240000000000
0(
#1260000000000
b11111 <
b11111111111111111111111111111111111111111111111111111111111111111111111111111111111111111111111101111111110001111111111100111100100001111110110111111101001001000011001100011111011010110110110010011110110010100100000000101111100111110000000000000000 8
1(
#1280000000000
0(
#1300000000000
b100000 <
b1111111111111111111111111111111111111111111111111111111111111111111111111111111111111111111111111111111101111111110001111111111100111100100001111110110111111101001001000011001100011111011010110110110010011110110010100100000000101111100111110000000000000000 8
1(
#1320000000000
0(
#1340000000000
1=
1(
#1360000000000
0(
#1380000000000
b1 ?
b100001 ;
b11100000 :
b1110111 9
b10001000 @
b10011001 >
1(
#1400000000000
0(
#1420000000000
b10 ?
b110000 ;
b10000 :
b11000001 9
b10010111 @
1(
#1440000000000
0(
#1460000000000
b11 ?
b1001 ;
b0 :
b100000 9
b11010001 @
1(
#1480000000000
0(
#1500000000000
b100 ?
b11101000 ;
b10010000 :
b1001 9
b100000 @
1(
#1520000000000
0(
#1540000000000
b101 ?
b1110010 ;
b10000000 :
b1111000 9
b10011001 @
1(
#1560000000000
0(
#1580000000000
b110 ?
b1011011 ;
b100000 :
b11110010 9
b11111000 @
1(
#1600000000000
0(
#1620000000000
b111 ?
b1001 ;
b10110000 :
b1111011 9
b11010010 @
1(
#1640000000000
0(
#1660000000000
b1000 ?
b11010000 ;
b10010000 :
b10111001 9
b11001011 @
1(
#1680000000000
0(
#1700000000000
b1001 ?
b101101 ;
b0 :
b1000000 9
b101001 @
1(
#1720000000000
0(
#1740000000000
b1010 ?
b11111000 ;
b11010000 :
b101101 9
b1000000 @
1(
#1760000000000
0(
#1780000000000
b1011 ?
b11001001 ;
b10000000 :
b101000 9
b11111101 @
1(
#1800000000000
0(
#1820000000000
b1100 ?
b1100101 ;
b10010000 :
b1001001 9
b10101000 @
1(
#1840000000000
0(
#1860000000000
b1101 ?
b1101111 ;
b1010000 :
b11110101 9
b11011001 @
1(
#1880000000000
0(
#1900000000000
b1110 ?
b101011 ;
b11110000 :
b111111 9
b10100101 @
1(
#1920000000000
0(
#1940000000000
b1111 ?
b11101111 ;
b10110000 :
b11011011 9
b11001111 @
1(
#1960000000000
0(
#1980000000000
b10000 ?
b1000000 ;
b11110000 :
b1011111 9
b1101011 @
1(
#2000000000000
0(
#2020000000000
b10001 ?
b1000111 ;
b0 :
b10110000 9
b10101111 @
1(
#2040000000000
0(
#2060000000000
b10010 ?
b11000 ;
b1110000 :
b1000111 9
b10110000 @
b10100001 >
1(
#2080000000000
0(
#2100000000000
b10011 ?
b10010111 ;
b10000000 :
b1101000 9
b1110111 @
1(
#2120000000000
0(
#2140000000000
b10100 ?
b10001000 ;
b1110000 :
b10111 9
b11101000 @
1(
#2160000000000
0(
#2180000000000
b10101 ?
b10111 ;
b10000000 :
b11111000 9
b1110111 @
1(
#2200000000000
0(
#2220000000000
b10110 ?
b10011000 ;
b1110000 :
b10010111 9
b11111000 @
1(
#2240000000000
0(
#2260000000000
b10111 ?
b10010111 ;
b10000000 :
b11101000 9
b11110111 @
1(
#2280000000000
0(
#2300000000000
b11000 ?
b10001000 ;
b1110000 :
b10111 9
b11101000 @
1(
#2320000000000
0(
#2340000000000
b11001 ?
b10111 ;
b10000000 :
b11111000 9
b1110111 @
1(
#2360000000000
0(
#2380000000000
b11010 ?
b10011000 ;
b1110000 :
b10010111 9
b11111000 @
1(
#2400000000000
0(
#2420000000000
b11011 ?
b10010111 ;
b10000000 :
b11101000 9
b11110111 @
1(
#2440000000000
0(
#2460000000000
b11100 ?
b10001000 ;
b1110000 :
b10111 9
b11101000 @
1(
#2480000000000
0(
#2500000000000
b11101 ?
b10111 ;
b10000000 :
b11111000 9
b1110111 @
1(
#2520000000000
0(
#2540000000000
b11110 ?
b10011000 ;
b1110000 :
b10010111 9
b11111000 @
1(
#2560000000000
0(
#2580000000000
b11111 ?
b10010111 ;
b10000000 :
b11101000 9
b11110111 @
1(
#2600000000000
0(
#2620000000000
b100000 ?
b10001000 ;
b1110000 :
b10111 9
b11101000 @
1(
#2640000000000
0(
#2660000000000
b110001111100110000110 6
b100001 ?
bx ;
b10000000 :
b11111000 9
1)
b10000110 5
b11111001 4
b11000 3
1(
#2680000000000
0(
#2700000000000
b110001111100110000110 "
b110001111100110000110 7
b110001111100110000110 A
1(
