ListoParaSintesis/result.vcd
$date
	Tue Jul 13 16:47:20 2021
$end
$version
	Icarus Verilog
$end
$timescale
	100ps
$end
$scope module system_tb $end
$var reg 1 ! clk $end
$var reg 1 " reset $end
$var reg 1 # selector $end
$var reg 96 $ w_data_entry_12 [95:0] $end
$var reg 32 % w_data_nonce [31:0] $end
$var reg 8 & w_target [7:0] $end
$scope module system $end
$var wire 1 ! clk $end
$var wire 96 ' data_entry_12 [95:0] $end
$var wire 32 ( data_nonce [31:0] $end
$var wire 8 ) data_target [7:0] $end
$var wire 1 " reset $end
$var wire 1 # selector $end
$var wire 96 * w_data_entry_12 [95:0] $end
$var wire 32 + w_data_nonce [31:0] $end
$var wire 8 , w_target [7:0] $end
$var wire 1 - wclk $end
$var wire 1 . wreset $end
$var wire 1 / wselector $end
$var wire 24 0 w_data_out_cond [23:0] $end
$var wire 128 1 w_block [127:0] $end
$var wire 1 2 HASH_done $end
$scope module concatenador $end
$var wire 1 - clk $end
$var wire 96 3 entry_12 [95:0] $end
$var wire 32 4 nonce [31:0] $end
$var wire 1 . reset $end
$var wire 1 / selector $end
$var reg 128 5 block_out [127:0] $end
$var reg 1 6 entry_valid $end
$var reg 96 7 hold_entry_12 [95:0] $end
$var reg 32 8 hold_nonce [31:0] $end
$var reg 1 9 nonce_valid $end
$upscope $end
$scope module hash $end
$var wire 128 : block [127:0] $end
$var wire 1 - clk $end
$var wire 1 . reset $end
$var wire 8 ; target [7:0] $end
$var reg 8 < H0 [7:0] $end
$var reg 8 = H1 [7:0] $end
$var reg 8 > H2 [7:0] $end
$var reg 24 ? H_hold [23:0] $end
$var reg 24 @ H_out [23:0] $end
$var reg 256 A W [255:0] $end
$var reg 8 B a [7:0] $end
$var reg 8 C b [7:0] $end
$var reg 8 D c [7:0] $end
$var reg 1 2 hash_done $end
$var reg 8 E i [7:0] $end
$var reg 1 F j $end
$var reg 8 G k [7:0] $end
$var reg 8 H t [7:0] $end
$var reg 8 I x [7:0] $end
$upscope $end
$upscope $end
$upscope $end
$enddefinitions $end
#0
$dumpvars
bx I
bx H
bx G
xF
bx E
bx D
bx C
bx B
bx A
bx @
bx ?
bx >
bx =
bx <
b11111111 ;
bx :
x9
b0 8
b0 7
x6
bx 5
b111100100001111110110111111101 4
b1001000011001100011111011010110110110010011110110010100100000000101111100111110111110100111001 3
x2
bx 1
bx 0
1/
0.
0-
b11111111 ,
b111100100001111110110111111101 +
b1001000011001100011111011010110110110010011110110010100100000000101111100111110111110100111001 *
b11111111 )
b111100100001111110110111111101 (
b1001000011001100011111011010110110110010011110110010100100000000101111100111110111110100111001 '
b11111111 &
b111100100001111110110111111101 %
b1001000011001100011111011010110110110010011110110010100100000000101111100111110111110100111001 $
1#
0"
0!
$end
#10000000000
b0 1
b0 5
b0 :
b0 0
b0 @
02
b0 H
0F
b0 E
b0 A
b11111110 >
b10001001 =
b1 <
b0 I
b0 G
b0 D
b0 C
b0 B
1-
1!
#20000000000
0-
0!
#30000000000
1-
1!
#40000000000
19
b111100100001111110110111111101 8
16
b1001000011001100011111011010110110110010011110110010100100000000101111100111110111110100111001 7
1.
1"
0-
0!
#50000000000
b111100100001111110110111111101001001000011001100011111011010110110110010011110110010100100000000101111100111110111110100111001 1
b111100100001111110110111111101001001000011001100011111011010110110110010011110110010100100000000101111100111110111110100111001 5
b111100100001111110110111111101001001000011001100011111011010110110110010011110110010100100000000101111100111110111110100111001 :
b11000100111111110 ?
b1 E
b11111110 D
b10001001 C
b1 B
1-
1!
#60000000000
0-
0!
#70000000000
b10 E
b111110100000000 A
b11000100111111110 0
b11000100111111110 @
1-
1!
#80000000000
0-
0!
#90000000000
b11 E
b100111110111110100000000 A
1-
1!
#100000000000
0-
0!
#110000000000
b100 E
b101111100111110111110100000000 A
1-
1!
#120000000000
0-
0!
#130000000000
b101 E
b100000000101111100111110111110100000000 A
1-
1!
#140000000000
0-
0!
#150000000000
b110 E
b110010100100000000101111100111110111110100000000 A
1-
1!
#160000000000
0-
0!
#170000000000
b111 E
b10011110110010100100000000101111100111110111110100000000 A
1-
1!
#180000000000
0-
0!
#190000000000
b1000 E
b110110010011110110010100100000000101111100111110111110100000000 A
1-
1!
#200000000000
0-
0!
#210000000000
b1001 E
b11010110110110010011110110010100100000000101111100111110111110100000000 A
1-
1!
#220000000000
0-
0!
#230000000000
b1010 E
b11111011010110110110010011110110010100100000000101111100111110111110100000000 A
1-
1!
#240000000000
0-
0!
#250000000000
b1011 E
b11001100011111011010110110110010011110110010100100000000101111100111110111110100000000 A
1-
1!
#260000000000
0-
0!
#270000000000
b1100 E
b1001000011001100011111011010110110110010011110110010100100000000101111100111110111110100000000 A
1-
1!
#280000000000
0-
0!
#290000000000
b1101 E
b11111101001001000011001100011111011010110110110010011110110010100100000000101111100111110111110100000000 A
1-
1!
#300000000000
0-
0!
#310000000000
b1110 E
b1110110111111101001001000011001100011111011010110110110010011110110010100100000000101111100111110111110100000000 A
1-
1!
#320000000000
0-
0!
#330000000000
b1111 E
b100001111110110111111101001001000011001100011111011010110110110010011110110010100100000000101111100111110111110100000000 A
1-
1!
#340000000000
0-
0!
#350000000000
b10000 E
b111100100001111110110111111101001001000011001100011111011010110110110010011110110010100100000000101111100111110111110100000000 A
1-
1!
#360000000000
0-
0!
#370000000000
b10001 E
b1111111100111100100001111110110111111101001001000011001100011111011010110110110010011110110010100100000000101111100111110111110100000000 A
1-
1!
#380000000000
0-
0!
#390000000000
b10010 E
b110001111111111100111100100001111110110111111101001001000011001100011111011010110110110010011110110010100100000000101111100111110111110100000000 A
1-
1!
#400000000000
0-
0!
#410000000000
b10011 E
b1111111110001111111111100111100100001111110110111111101001001000011001100011111011010110110110010011110110010100100000000101111100111110111110100000000 A
1-
1!
#420000000000
0-
0!
#430000000000
b10100 E
b1111111101111111110001111111111100111100100001111110110111111101001001000011001100011111011010110110110010011110110010100100000000101111100111110111110100000000 A
1-
1!
#440000000000
0-
0!
#450000000000
b10101 E
b111111111111111101111111110001111111111100111100100001111110110111111101001001000011001100011111011010110110110010011110110010100100000000101111100111110111110100000000 A
1-
1!
#460000000000
0-
0!
#470000000000
b10110 E
b11111111111111111111111101111111110001111111111100111100100001111110110111111101001001000011001100011111011010110110110010011110110010100100000000101111100111110111110100000000 A
1-
1!
#480000000000
0-
0!
#490000000000
b10111 E
b1111111111111111111111111111111101111111110001111111111100111100100001111110110111111101001001000011001100011111011010110110110010011110110010100100000000101111100111110111110100000000 A
1-
1!
#500000000000
0-
0!
#510000000000
b11000 E
b111111111111111111111111111111111111111101111111110001111111111100111100100001111110110111111101001001000011001100011111011010110110110010011110110010100100000000101111100111110111110100000000 A
1-
1!
#520000000000
0-
0!
#530000000000
b11001 E
b11111111111111111111111111111111111111111111111101111111110001111111111100111100100001111110110111111101001001000011001100011111011010110110110010011110110010100100000000101111100111110111110100000000 A
1-
1!
#540000000000
0-
0!
#550000000000
b11010 E
b1111111111111111111111111111111111111111111111111111111101111111110001111111111100111100100001111110110111111101001001000011001100011111011010110110110010011110110010100100000000101111100111110111110100000000 A
1-
1!
#560000000000
0-
0!
#570000000000
b11011 E
b111111111111111111111111111111111111111111111111111111111111111101111111110001111111111100111100100001111110110111111101001001000011001100011111011010110110110010011110110010100100000000101111100111110111110100000000 A
1-
1!
#580000000000
0-
0!
#590000000000
b11100 E
b11111111111111111111111111111111111111111111111111111111111111111111111101111111110001111111111100111100100001111110110111111101001001000011001100011111011010110110110010011110110010100100000000101111100111110111110100000000 A
1-
1!
#600000000000
0-
0!
#610000000000
b11101 E
b1111111111111111111111111111111111111111111111111111111111111111111111111111111101111111110001111111111100111100100001111110110111111101001001000011001100011111011010110110110010011110110010100100000000101111100111110111110100000000 A
1-
1!
#620000000000
0-
0!
#630000000000
b11110 E
b111111111111111111111111111111111111111111111111111111111111111111111111111111111111111101111111110001111111111100111100100001111110110111111101001001000011001100011111011010110110110010011110110010100100000000101111100111110111110100000000 A
1-
1!
#640000000000
0-
0!
#650000000000
b11111 E
b11111111111111111111111111111111111111111111111111111111111111111111111111111111111111111111111101111111110001111111111100111100100001111110110111111101001001000011001100011111011010110110110010011110110010100100000000101111100111110111110100000000 A
1-
1!
#660000000000
0-
0!
#670000000000
b100000 E
b1111111111111111111111111111111111111111111111111111111111111111111111111111111111111111111111111111111101111111110001111111111100111100100001111110110111111101001001000011001100011111011010110110110010011110110010100100000000101111100111110111110100000000 A
1-
1!
#680000000000
0-
0!
#690000000000
1F
1-
1!
#700000000000
0-
0!
#710000000000
b1 H
b100001 D
b11100000 C
b1110111 B
b10001000 I
b10011001 G
1-
1!
#720000000000
0-
0!
#730000000000
b10 H
b10101101 D
b10000 C
b11000001 B
b10010111 I
1-
1!
#740000000000
0-
0!
#750000000000
b11 H
b1001 D
b11010000 C
b10111101 B
b11010001 I
1-
1!
#760000000000
0-
0!
#770000000000
b100 H
b110101 D
b10010000 C
b11011001 B
b1101101 I
1-
1!
#780000000000
0-
0!
#790000000000
b101 H
b100010 D
b1010000 C
b10100101 B
b1001001 I
1-
1!
#800000000000
0-
0!
#810000000000
b110 H
b1011000 D
b100000 C
b1110010 B
b11110101 I
1-
1!
#820000000000
0-
0!
#830000000000
b111 H
b10001001 D
b10000000 C
b1111000 B
b1010010 I
1-
1!
#840000000000
0-
0!
#850000000000
b1000 H
b11111101 D
b10010000 C
b1001 B
b11111000 I
1-
1!
#860000000000
0-
0!
#870000000000
b1001 H
b10011101 D
b11010000 C
b1101101 B
b10011001 I
1-
1!
#880000000000
0-
0!
#890000000000
b1010 H
b1110101 D
b1001101 B
b10111101 I
1-
1!
#900000000000
0-
0!
#910000000000
b1011 H
b1101001 D
b1010000 C
b10100101 B
b10011101 I
1-
1!
#920000000000
0-
0!
#930000000000
b1100 H
b10110010 D
b10010000 C
b111001 B
b11110101 I
1-
1!
#940000000000
0-
0!
#950000000000
b1101 H
b111111 D
b100000 C
b100010 B
b10101001 I
1-
1!
#960000000000
0-
0!
#970000000000
b1110 H
b10001000 D
b11110000 C
b11111 B
b10 I
1-
1!
#980000000000
0-
0!
#990000000000
b1111 H
b1111 D
b10000000 C
b1111000 B
b11101111 I
1-
1!
#1000000000000
0-
0!
#1010000000000
b10000 H
b11001101 D
b11110000 C
b10001111 B
b11111000 I
1-
1!
#1020000000000
0-
0!
#1030000000000
b10001 H
b10111 D
b11010000 C
b111101 B
b1111111 I
1-
1!
#1040000000000
0-
0!
#1050000000000
b10010 H
b1100101 D
b1110000 C
b11000111 B
b11111101 I
b10100001 G
1-
1!
#1060000000000
0-
0!
#1070000000000
b10011 H
b10111 D
b1010000 C
b10101 B
b11110111 I
1-
1!
#1080000000000
0-
0!
#1090000000000
b10100 H
b11110101 D
b1110000 C
b1000111 B
b1010101 I
1-
1!
#1100000000000
0-
0!
#1110000000000
b10101 H
b10111 D
b1010000 C
b10000101 B
b1110111 I
1-
1!
#1120000000000
0-
0!
#1130000000000
b10110 H
b1110101 D
b1110000 C
b1000111 B
b11010101 I
1-
1!
#1140000000000
0-
0!
#1150000000000
b10111 H
b10111 D
b1010000 C
b101 B
b1110111 I
1-
1!
#1160000000000
0-
0!
#1170000000000
b11000 H
b11110101 D
b1110000 C
b1000111 B
b1010101 I
1-
1!
#1180000000000
0-
0!
#1190000000000
b11001 H
b10111 D
b1010000 C
b10000101 B
b1110111 I
1-
1!
#1200000000000
0-
0!
#1210000000000
b11010 H
b1110101 D
b1110000 C
b1000111 B
b11010101 I
1-
1!
#1220000000000
0-
0!
#1230000000000
b11011 H
b10111 D
b1010000 C
b101 B
b1110111 I
1-
1!
#1240000000000
0-
0!
#1250000000000
b11100 H
b11110101 D
b1110000 C
b1000111 B
b1010101 I
1-
1!
#1260000000000
0-
0!
#1270000000000
b11101 H
b10111 D
b1010000 C
b10000101 B
b1110111 I
1-
1!
#1280000000000
0-
0!
#1290000000000
b11110 H
b1110101 D
b1110000 C
b1000111 B
b11010101 I
1-
1!
#1300000000000
0-
0!
#1310000000000
b11111 H
b10111 D
b1010000 C
b101 B
b1110111 I
1-
1!
#1320000000000
0-
0!
#1330000000000
b100000 H
b11110101 D
b1110000 C
b1000111 B
b1010101 I
1-
1!
#1340000000000
0-
0!
#1350000000000
b100001 H
bx D
b1010000 C
b10000101 B
12
b11110011 >
b11111001 =
b1001000 <
1-
1!
#1360000000000
0-
0!
#1370000000000
b10010001111100111110011 ?
1-
1!
#1380000000000
0-
0!
#1390000000000
b10010001111100111110011 0
b10010001111100111110011 @
1-
1!
